 [
  {
  "icon_name": "MemberPage.center_yonghuliebiao",
  "txt_name": "用户列表"
  },
  {
  "icon_name": "MemberPage.center_zhuceguanli",
  "txt_name": "注册管理"
  },
  {
  "icon_name": "MemberPage.center_zhanneiduanxin",
  "txt_name": "站内短信"
  },
  {
  "icon_name": "MemberPage.center_youhuihuodong",
  "txt_name": "优惠活动大厅"
  },
  {
  "icon_name": "HomePage.Balanceinterest",
  "txt_name": "周周转运"
  },
  {
  "icon_name": "HomePage.Balanceinterest",
  "txt_name": "每日加奖"
  },
  {
  "icon_name": "HomePage.topup_card",
  "txt_name": "充值卡"
  },
  {
  "icon_name": "HomePage.topup_card",
  "txt_name": "充值卡记录"
  },
  {
  "icon_name": "HomePage.topup_card",
  "txt_name": "代金券"
  },
  {
  "icon_name": "MemberPage.tueguangliangjie",
  "txt_name": "推广链接"
  },
  {
  "icon_name": "MemberPage.center_fee_convert",
  "txt_name": "额度转换"
  },
  {
  "icon_name": "MemberPage.center_fee_convert",
  "txt_name": "额度转换记录"
  },
  {
  "icon_name": "MemberPage.center_wodetuijian",
  "txt_name": "我的推荐"
  },
  {
  "icon_name": "MemberPage.center_score_exchange",
  "txt_name": "积分兑换"
  },
  {
  "icon_name": "MemberPage.center_goucaichaxun",
  "txt_name": "彩票注单"
  },
  {
  "icon_name": "MemberPage.center_zhuihaochaxun",
  "txt_name": "追号查询"
  },
  {
  "icon_name": "MemberPage.center_zhenrenzhudan",
  "txt_name": "真人注单"
  },
  {
  "icon_name": "MemberPage.center_dianzizhudan",
  "txt_name": "电子注单"
  },
  {
  "icon_name": "MemberPage.center_dianzizhudan",
  "txt_name": "PT电子注单"
  },
  {
  "icon_name": "MemberPage.center_chessReport",
  "txt_name": "棋牌注单"
  },
  {
  "icon_name": "MemberPage.center_sportsReport",
  "txt_name": "体育注单"
  },
  {
  "icon_name": "MemberPage.center_fish_record",
  "txt_name": "捕鱼注单"
  },
  {
  "icon_name": "MemberPage.center_esport_record",
  "txt_name": "电竞注单"
  },
  {
  "icon_name": "MemberPage.center_gerenbaobiao",
  "txt_name": "个人报表"
  },
  {
  "icon_name": "MemberPage.center_tuanduibaobiao",
  "txt_name": "团队报表"
  },
  {
  "icon_name": "MemberPage.center_damaliang",
  "txt_name": "打码量变动记录"
  },
  {
  "icon_name": "MemberPage.center_zhangbianbaobiao",
  "txt_name": "账变报表"
  },
 {
 "icon_name": "MemberPage.center_chongtijilu",
 "txt_name": "充提记录" 
 },
 {
 "icon_name": "MemberPage.center_youhuihuodong",
 "txt_name": "优惠活动"
 },
 {
 "icon_name": "MemberPage.center_yonghuziliao",
 "txt_name": "用户资料"
 },
 {
 "icon_name": "MemberPage.center_yinhangka",
 "txt_name": "银行卡"
 },
 {
 "icon_name": "MemberPage.center_gerenzonglan",
 "txt_name": "个人总览"
 },
 {
 "icon_name": "MemberPage.center_mibaoxiugai",
 "txt_name": "密码修改"
 },
  {
  "icon_name": "MemberPage.center_zhanneiduanxin",
  "txt_name": "建议反馈"
  },
 {
 "icon_name": "MemberPage.center_caizhongxinxi",
 "txt_name": "彩种信息"
 },
 {
 "icon_name": "MemberPage.center_caizhongxiane",
 "txt_name": "彩种限额"
 },
 {
 "icon_name": "MemberPage.center_kaijiangjieguo",
 "txt_name": "开奖结果"
 },
 {
 "icon_name": "MemberPage.center_zoushitu",
 "txt_name": "走势图"
 },
 {
 "icon_name": "MemberPage.center_tuanduizonglan",
 "txt_name": "团队总览"
 },
 {
 "icon_name": "MemberPage.center_wangzhangonggao",
 "txt_name": "网站公告"
 },
{
"icon_name": "MemberPage.bzzx_icon",
"txt_name": "帮助中心"
}
]
 
 
